com\sofya\java\mcbestpc\backend\model\McReqConsCotizacion_.class
com\sofya\java\mcbestpc\backend\model\McRequerimiento.class
com\sofya\java\mcbestpc\backend\model\McConsolidado.class
com\sofya\java\mcbestpc\backend\model\McRequerimientoConsolidado.class
com\sofya\java\mcbestpc\backend\model\McCotizacion_.class
com\sofya\java\mcbestpc\backend\model\McDetalleConsolidado.class
com\sofya\java\mcbestpc\backend\model\McDetalleConsolidado_.class
com\sofya\java\mcbestpc\backend\model\McDetalleCotizacion_.class
com\sofya\java\mcbestpc\backend\model\McRequerimiento_.class
com\sofya\java\mcbestpc\backend\model\McAgencia_.class
com\sofya\java\mcbestpc\backend\model\McDetalleRequerimientos_.class
com\sofya\java\mcbestpc\backend\dao\ejb\AgenciaDaoEjb.class
com\sofya\java\mcbestpc\backend\model\McCotizacion.class
com\sofya\java\mcbestpc\backend\model\McDetalleCotizacion.class
com\sofya\java\mcbestpc\backend\model\McProveedor.class
com\sofya\java\mcbestpc\backend\model\McDetalleRequerimientos.class
com\sofya\java\mcbestpc\backend\model\McReqConsCotizacion.class
com\sofya\java\mcbestpc\backend\constant\EstadoEnum.class
com\sofya\java\mcbestpc\backend\model\McAgencia.class
com\sofya\java\mcbestpc\backend\model\McConsolidado_.class
com\sofya\java\mcbestpc\backend\model\McProveedor_.class
com\sofya\java\mcbestpc\backend\model\McRequerimientoConsolidado_.class
com\sofya\java\mcbestpc\backend\dao\AgenciaDao.class
com\sofya\java\mcbestpc\backend\dao\ejb\McBestPcGenericDao.class
