C:\Users\Roger Pilacuan\Documents\MC_BACKEND\com.sofya.java.mcbestpc.backend\src\main\java\com\sofya\java\mcbestpc\backend\model\McConsolidado.java
C:\Users\Roger Pilacuan\Documents\MC_BACKEND\com.sofya.java.mcbestpc.backend\src\main\java\com\sofya\java\mcbestpc\backend\dao\ejb\AgenciaDaoEjb.java
C:\Users\Roger Pilacuan\Documents\MC_BACKEND\com.sofya.java.mcbestpc.backend\src\main\java\com\sofya\java\mcbestpc\backend\model\McAgencia.java
C:\Users\Roger Pilacuan\Documents\MC_BACKEND\com.sofya.java.mcbestpc.backend\src\main\java\com\sofya\java\mcbestpc\backend\model\McReqConsCotizacion.java
C:\Users\Roger Pilacuan\Documents\MC_BACKEND\com.sofya.java.mcbestpc.backend\src\main\java\com\sofya\java\mcbestpc\backend\model\McDetalleRequerimientos.java
C:\Users\Roger Pilacuan\Documents\MC_BACKEND\com.sofya.java.mcbestpc.backend\src\main\java\com\sofya\java\mcbestpc\backend\constant\EstadoEnum.java
C:\Users\Roger Pilacuan\Documents\MC_BACKEND\com.sofya.java.mcbestpc.backend\src\main\java\com\sofya\java\mcbestpc\backend\model\McCotizacion.java
C:\Users\Roger Pilacuan\Documents\MC_BACKEND\com.sofya.java.mcbestpc.backend\src\main\java\com\sofya\java\mcbestpc\backend\dao\AgenciaDao.java
C:\Users\Roger Pilacuan\Documents\MC_BACKEND\com.sofya.java.mcbestpc.backend\src\main\java\com\sofya\java\mcbestpc\backend\model\McRequerimientoConsolidado.java
C:\Users\Roger Pilacuan\Documents\MC_BACKEND\com.sofya.java.mcbestpc.backend\src\main\java\com\sofya\java\mcbestpc\backend\model\McDetalleConsolidado.java
C:\Users\Roger Pilacuan\Documents\MC_BACKEND\com.sofya.java.mcbestpc.backend\src\main\java\com\sofya\java\mcbestpc\backend\model\McDetalleCotizacion.java
C:\Users\Roger Pilacuan\Documents\MC_BACKEND\com.sofya.java.mcbestpc.backend\src\main\java\com\sofya\java\mcbestpc\backend\model\McProveedor.java
C:\Users\Roger Pilacuan\Documents\MC_BACKEND\com.sofya.java.mcbestpc.backend\src\main\java\com\sofya\java\mcbestpc\backend\model\McRequerimiento.java
C:\Users\Roger Pilacuan\Documents\MC_BACKEND\com.sofya.java.mcbestpc.backend\src\main\java\com\sofya\java\mcbestpc\backend\dao\ejb\McBestPcGenericDao.java
